{
  "accounts": {
    "updateMany": {
      "criteria": {
        "type": "String",
        "filter": "equal",
        "fieldName": "login",
        "value": "frodon"
      },
      "documentsToUpdate": [
        {
          "$addFields": {
            "test": "test",
            "coucou": "coucou"
          }
        },
        {
          "$set": {
            "company": "Toto Inc",
            "country": "Spain"
          }
        }
      ]
    }
  }
}